Juwon Lee Project 1
…
This data is not tidy so we need to clean it up

2. Tidy + Clean Data

Pivot longer

# Pivot longer to have each row represent an observation
untidy_rankings %>% pivot_longer(cols = c("X2010":"X2020"),
                          names_to = "Year",
                          values_to = "rank_team_pos")

## # A tibble: 4,741 x 4
##        X Player    Year  rank_team_pos
##    <int> <chr>     <chr> <chr>        
##  1     1 Tom Brady X2010 1_NE_QB      
##  2     1 Tom Brady X2011 4_NE_QB      
##  3     1 Tom Brady X2012 4_NE_QB      
##  4     1 Tom Brady X2013 3_NE_QB      
##  5     1 Tom Brady X2014 3_NE_QB      
##  6     1 Tom Brady X2015 2_NE_QB      
##  7     1 Tom Brady X2016 1_NE_QB      
##  8     1 Tom Brady X2017 1_NE_QB      
##  9     1 Tom Brady X2018 6_NE_QB      
## 10     1 Tom Brady X2019 14_NE_QB     
## # ... with 4,731 more rows

Separate Column

# Separate rank_team_pos into three separate columns 
untidy_rankings %>% pivot_longer(cols = c("X2010":"X2020"),
                          names_to = "Year",
                          values_to = "rank_team_pos") %>%
  separate(rank_team_pos, into = (c("Rank","Team","Position")), convert = T)

## # A tibble: 4,741 x 6
##        X Player    Year   Rank Team  Position
##    <int> <chr>     <chr> <int> <chr> <chr>   
##  1     1 Tom Brady X2010     1 NE    QB      
##  2     1 Tom Brady X2011     4 NE    QB      
##  3     1 Tom Brady X2012     4 NE    QB      
##  4     1 Tom Brady X2013     3 NE    QB      
##  5     1 Tom Brady X2014     3 NE    QB      
##  6     1 Tom Brady X2015     2 NE    QB      
##  7     1 Tom Brady X2016     1 NE    QB      
##  8     1 Tom Brady X2017     1 NE    QB      
##  9     1 Tom Brady X2018     6 NE    QB      
## 10     1 Tom Brady X2019    14 NE    QB      
## # ... with 4,731 more rows

Select and Remove Columns

# Clean Year column, remove unnecessary columns, and drop NA values
untidy_rankings %>% pivot_longer(cols = c("X2010":"X2020"),
                          names_to = "Year",
                          values_to = "rank_team_pos") %>%
  separate(rank_team_pos, into = (c("Rank","Team","Position")), convert = T) %>%
  separate(Year, into = (c("x1","Year")), sep = (1:1), convert = T) %>%
  select(-X, - x1) %>% drop_na()

## # A tibble: 1,100 x 5
##    Player     Year  Rank Team  Position
##    <chr>     <int> <int> <chr> <chr>   
##  1 Tom Brady  2010     1 NE    QB      
##  2 Tom Brady  2011     4 NE    QB      
##  3 Tom Brady  2012     4 NE    QB      
##  4 Tom Brady  2013     3 NE    QB      
##  5 Tom Brady  2014     3 NE    QB      
##  6 Tom Brady  2015     2 NE    QB      
##  7 Tom Brady  2016     1 NE    QB      
##  8 Tom Brady  2017     1 NE    QB      
##  9 Tom Brady  2018     6 NE    QB      
## 10 Tom Brady  2019    14 NE    QB      
## # ... with 1,090 more rows
…
# sort values by Year and rank
# Add new column "Points" as a way to quantify ranking (higher rank equates to more points)
# save to new dataframe: rankings
rankings <- untidy_rankings %>% pivot_longer(cols = c("X2010":"X2020"),
                          names_to = "Year",
                          values_to = "rank_team_pos") %>%
  separate(rank_team_pos, into = (c("Rank","Team","Position")), convert = T) %>%
  separate(Year, into = (c("x1","Year")), sep = (1:1), convert = T) %>%
  select(-X, - x1) %>% drop_na() %>%
  arrange(Year, Rank) %>%
  mutate(Points = 101- Rank)

rankings

## # A tibble: 1,100 x 6
##    Player           Year  Rank Team  Position Points
##    <chr>           <int> <int> <chr> <chr>     <dbl>
##  1 Tom Brady        2010     1 NE    QB          100
##  2 Peyton Manning   2010     2 IND   QB           99
##  3 Adrian Peterson  2010     3 MIN   RB           98
##  4 Ray Lewis        2010     4 BAL   LB           97
##  5 Ed Reed          2010     5 BAL   S            96
##  6 Troy Polamalu    2010     6 PIT   S            95
##  7 Andre Johnson    2010     7 HOU   WR           94
##  8 Darrelle Revis   2010     8 NYJ   CB           93
##  9 Drew Brees       2010     9 NOR   QB           92
## 10 Julius Peppers   2010    10 CHI   DE           91
## # ... with 1,090 more rows
…
